<svg xmlns="http://www.w3.org/2000/svg" width="49.969" height="49.94" viewBox="0 0 49.969 49.94">
  <metadata><?xpacket begin="﻿" id="W5M0MpCehiHzreSzNTczkc9d"?>
<x:xmpmeta xmlns:x="adobe:ns:meta/" x:xmptk="Adobe XMP Core 5.6-c142 79.160924, 2017/07/13-01:06:39        ">
   <rdf:RDF xmlns:rdf="http://www.w3.org/1999/02/22-rdf-syntax-ns#">
      <rdf:Description rdf:about=""/>
   </rdf:RDF>
</x:xmpmeta>
                                                                                                    
                                                                                                    
                                                                                                    
                                                                                                    
                                                                                                    
                                                                                                    
                                                                                                    
                                                                                                    
                                                                                                    
                                                                                                    
                                                                                                    
                                                                                                    
                                                                                                    
                                                                                                    
                                                                                                    
                                                                                                    
                                                                                                    
                                                                                                    
                                                                                                    
                                                                                                    
                           
<?xpacket end="w"?></metadata>
<defs>
    <style>
      .cls-1 {
        fill: #b06c51;
        fill-rule: evenodd;
      }
    </style>
  </defs>
  <path id="_2" data-name="2" class="cls-1" d="M460.93,983.112h9.675v1.611H460.93v-1.611ZM465.767,967a24.976,24.976,0,1,0,24.994,24.975A25.012,25.012,0,0,0,465.767,967Zm0,48.341a23.365,23.365,0,1,1,23.381-23.366A23.4,23.4,0,0,1,465.767,1015.34Zm21.769-24.172H485.9a20.173,20.173,0,0,0-19.33-19.316v-1.631h-1.612v1.631a20.172,20.172,0,0,0-19.33,19.316H444v1.612h1.633a20.176,20.176,0,0,0,19.33,19.32v1.63h1.612v-1.63a20.176,20.176,0,0,0,19.33-19.32h1.633v-1.612Zm-22.575,17.722v1.6a18.55,18.55,0,0,1-5.644-1.14V999.225h-1.612v9.435a18.8,18.8,0,0,1-3.225-2v-6.63a5.626,5.626,0,0,1,3.263-5.1l-0.249.5,7.467,5.8v6.05h1.612v-6.05l7.467-5.8-0.249-.5a5.627,5.627,0,0,1,3.264,5.1v6.63a18.88,18.88,0,0,1-3.225,2v-9.435h-1.613v10.125a18.544,18.544,0,0,1-5.644,1.14v-1.6h-1.612Zm-4.838-24.167v-3.032a1.8,1.8,0,0,1,1.8-1.8,1.831,1.831,0,0,1,.806.189,5.85,5.85,0,0,0,2.609.616h0.851a5.856,5.856,0,0,0,2.609-.616,1.831,1.831,0,0,1,.806-0.189,1.8,1.8,0,0,1,1.8,1.8v3.032h1.612v-0.752a3.742,3.742,0,0,1,1.582.759c-0.473.609-3.646,1.605-8.838,1.605s-8.365-1-8.838-1.605a3.756,3.756,0,0,1,1.582-.759v0.752h1.612Zm11.072,8.622,0.812,1.621-5.249,4.08,2.9-5.8a7.3,7.3,0,0,0,2.555-2.794l1.7,0.85Zm-7.038.861a7.061,7.061,0,0,0,3.22,0l-1.61,3.217Zm1.61-6.26a34.911,34.911,0,0,0,5.625-.447,5.637,5.637,0,0,1-11.251,0A34.932,34.932,0,0,0,465.767,987.946Zm-3.891,5.3,2.9,5.8-5.248-4.08,0.812-1.621-2.72-2.038,1.7-.851A7.308,7.308,0,0,0,461.876,993.25Zm16.791,12.02v-5.24a7.243,7.243,0,0,0-4.678-6.766l2.98-2.233-4.182-2.09a7.234,7.234,0,0,0,.236-1.8c1.854-.5,3.225-1.267,3.225-2.424,0-1.058-1.066-1.852-3.225-2.424v-0.607a3.415,3.415,0,0,0-4.943-3.053,4.25,4.25,0,0,1-1.888.445h-0.851a4.25,4.25,0,0,1-1.888-.445,3.414,3.414,0,0,0-4.942,3.053V982.3c-2.159.572-3.225,1.366-3.225,2.424,0,1.157,1.37,1.927,3.225,2.424a7.234,7.234,0,0,0,.235,1.8l-4.182,2.09,2.981,2.233a7.243,7.243,0,0,0-4.678,6.766v5.24a18.484,18.484,0,0,1-5.624-12.49h1.593v-1.612h-1.593a18.559,18.559,0,0,1,17.718-17.7v1.591h1.612v-1.591a18.559,18.559,0,0,1,17.718,17.7H482.7v1.612h1.593A18.488,18.488,0,0,1,478.667,1005.27Z" transform="translate(-440.781 -967)"/>
</svg>
