<svg xmlns="http://www.w3.org/2000/svg" width="48.969" height="49.97" viewBox="0 0 48.969 49.97">
  <metadata><?xpacket begin="﻿" id="W5M0MpCehiHzreSzNTczkc9d"?>
<x:xmpmeta xmlns:x="adobe:ns:meta/" x:xmptk="Adobe XMP Core 5.6-c142 79.160924, 2017/07/13-01:06:39        ">
   <rdf:RDF xmlns:rdf="http://www.w3.org/1999/02/22-rdf-syntax-ns#">
      <rdf:Description rdf:about=""/>
   </rdf:RDF>
</x:xmpmeta>
                                                                                                    
                                                                                                    
                                                                                                    
                                                                                                    
                                                                                                    
                                                                                                    
                                                                                                    
                                                                                                    
                                                                                                    
                                                                                                    
                                                                                                    
                                                                                                    
                                                                                                    
                                                                                                    
                                                                                                    
                                                                                                    
                                                                                                    
                                                                                                    
                                                                                                    
                                                                                                    
                           
<?xpacket end="w"?></metadata>
<defs>
    <style>
      .cls-1 {
        fill: #b06c51;
        fill-rule: evenodd;
      }
    </style>
  </defs>
  <path id="_5" data-name="5" class="cls-1" d="M129.27,1117.93v36.99h27.646v-1.6H130.85v-33.78h45.813v35.38h1.58v-36.99H129.27Zm45.814,20.91v-12.42l-0.5-.2a8.023,8.023,0,0,1-4.48-4.56l-0.2-.51h-32.3l-0.2.51a8.023,8.023,0,0,1-4.48,4.56l-0.5.2v20.01l0.5,0.21a7.964,7.964,0,0,1,4.481,4.56l0.195,0.51h19.308v-1.61H138.67a9.656,9.656,0,0,0-4.66-4.75V1127.5a9.6,9.6,0,0,0,4.66-4.74h30.174a9.592,9.592,0,0,0,4.66,4.74v11.34h1.58Zm-27.646-1.61a5.631,5.631,0,1,0-5.529-5.63A5.583,5.583,0,0,0,147.438,1137.23Zm0-9.65a4.021,4.021,0,1,1-3.95,4.02A3.988,3.988,0,0,1,147.438,1127.58Zm-8.689,12.06v7.24h17.377v-7.24a3.993,3.993,0,0,0-3.949-4.02v1.61a2.393,2.393,0,0,1,2.37,2.41v5.63h-1.58v-4.82h-1.58v4.82h-7.9v-4.82h-1.579v4.82h-1.58v-5.63a2.392,2.392,0,0,1,2.37-2.41v-1.61A3.994,3.994,0,0,0,138.749,1139.64Zm36.335,6.44a8.69,8.69,0,1,0-17.378,0,8.891,8.891,0,0,0,1.5,4.95l-4.17,12.74h4.65l3.037,4.12,3.677-11.23,3.677,11.23,3.037-4.12h4.65l-4.17-12.74A8.9,8.9,0,0,0,175.084,1146.08Zm-8.689-7.24a7.241,7.241,0,1,1-7.109,7.24A7.185,7.185,0,0,1,166.4,1138.84Zm-4.222,25.63-1.7-2.31h-3.249l3.175-9.7a8.557,8.557,0,0,0,4.926,2.39Zm10.146-2.31-1.7,2.31-3.151-9.62a8.56,8.56,0,0,0,4.926-2.39l3.176,9.7h-3.249Zm-5.924-10.45a5.631,5.631,0,1,0-5.529-5.63A5.589,5.589,0,0,0,166.4,1151.71Zm0-9.65a4.021,4.021,0,1,1-3.949,4.02A3.987,3.987,0,0,1,166.4,1142.06Zm-8.689-14.48h14.218v1.61H157.706v-1.61Zm0,3.22h14.218v1.61H157.706v-1.61Zm12.638,3.21h1.58v1.61h-1.58v-1.61Zm-12.638,0h11.059v1.61H157.706v-1.61Z" transform="translate(-129.281 -1117.94)"/>
</svg>
