<?xml version="1.0" encoding="utf-8"?>
<!-- Generator: Adobe Illustrator 22.0.0, SVG Export Plug-In . SVG Version: 6.00 Build 0)  -->
<svg version="1.1" id="Слой_1" xmlns="http://www.w3.org/2000/svg" xmlns:xlink="http://www.w3.org/1999/xlink" x="0px" y="0px"
	 viewBox="0 0 16 16" style="enable-background:new 0 0 16 16;" xml:space="preserve">
<style type="text/css">
	.st0{fill:#71420E;}
	.st1{fill:#AA6C27;}
	.st2{fill:#FDB05B;}
	.st3{fill:#FFFFFF;}
</style>
<rect x="2" y="-0.1" width="3" height="1"/>
<rect x="4" y="3.9" width="3" height="1"/>
<rect x="9" y="3.9" width="3" height="1"/>
<rect x="11" y="-0.1" width="3" height="1"/>
<rect x="6" y="-0.1" width="4" height="1"/>
<rect x="6" y="1.9" width="4" height="1"/>
<rect x="7" y="2.9" width="2" height="1"/>
<rect x="7" y="4.9" width="2" height="1"/>
<rect x="12" y="1.9" width="2" height="1"/>
<rect x="5" y="0.9" width="1" height="1"/>
<rect x="11" y="9.9" width="1" height="1"/>
<rect x="13" y="9.9" width="1" height="1"/>
<rect x="10" y="8.9" width="1" height="1"/>
<rect x="10" y="6.9" width="1" height="1"/>
<rect x="11" y="6.9" width="1" height="1"/>
<rect x="11" y="5.9" width="1" height="1"/>
<rect x="6" y="9.9" width="4" height="1"/>
<rect x="7" y="10.9" width="2" height="1"/>
<rect x="9" y="5.9" width="1" height="3"/>
<rect x="4" y="5.9" width="1" height="1"/>
<rect x="4" y="7.9" class="st0" width="1" height="1"/>
<rect x="3" y="8.9" class="st0" width="1" height="1"/>
<rect x="4" y="2.9" class="st0" width="1" height="1"/>
<rect x="5" y="2.9" class="st0" width="1" height="1"/>
<rect x="6" y="2.9" class="st0" width="1" height="1"/>
<rect x="5" y="1.9" class="st0" width="1" height="1"/>
<rect x="9" y="2.9" class="st0" width="1" height="1"/>
<rect x="10" y="2.9" class="st0" width="1" height="1"/>
<rect x="11" y="2.9" class="st0" width="1" height="1"/>
<rect x="12" y="3.9" class="st0" width="1" height="1"/>
<rect x="10" y="7.9" class="st0" width="1" height="1"/>
<rect x="11" y="7.9" class="st0" width="1" height="1"/>
<rect x="12" y="7.9" class="st0" width="1" height="1"/>
<rect x="11" y="8.9" class="st0" width="1" height="1"/>
<rect x="12" y="8.9" class="st0" width="1" height="1"/>
<rect x="8" y="3.9" class="st0" width="1" height="1"/>
<rect x="7" y="3.9" class="st0" width="1" height="1"/>
<rect x="2" y="3.9" class="st1" width="1" height="1"/>
<rect x="5" y="9.9" class="st2" width="1" height="1"/>
<rect x="5" y="10.9" class="st2" width="1" height="1"/>
<rect x="6" y="10.9" class="st2" width="1" height="1"/>
<rect x="9" y="10.9" class="st2" width="1" height="1"/>
<rect x="10" y="10.9" class="st2" width="1" height="1"/>
<rect x="10" y="9.9" class="st2" width="1" height="1"/>
<rect x="12" y="9.9" class="st1" width="1" height="1"/>
<rect x="3" y="5.9" class="st1" width="1" height="1"/>
<rect x="5" y="5.9" class="st3" width="1" height="1"/>
<rect x="10" y="5.9" class="st3" width="1" height="1"/>
<rect x="4" y="4.9" class="st1" width="3" height="1"/>
<rect x="9" y="4.9" class="st1" width="3" height="1"/>
<rect x="7" y="12.9" class="st2" width="2" height="1"/>
<rect x="6" y="11.9" class="st2" width="4" height="1"/>
<rect x="12" y="2.9" class="st1" width="1" height="1"/>
<rect x="12" y="4.9" class="st1" width="1" height="3"/>
<rect x="8" y="5.9" class="st1" width="1" height="3"/>
<rect x="7" y="5.9" class="st1" width="1" height="3"/>
<rect x="6" y="8.9" class="st2" width="4" height="1"/>
<rect x="14" y="2.9" class="st1" width="1" height="1"/>
<rect x="14" y="1.9" class="st1" width="1" height="1"/>
<rect x="13" y="3.9" class="st1" width="1" height="6"/>
<rect x="1" y="2.9" class="st1" width="1" height="1"/>
<rect x="1" y="1.9" class="st1" width="1" height="1"/>
<rect x="2" y="0.9" class="st1" width="1" height="1"/>
<rect x="3" y="0.9" class="st1" width="1" height="1"/>
<rect x="4" y="0.9" class="st1" width="1" height="1"/>
<rect x="6" y="0.9" class="st1" width="4" height="1"/>
<rect x="11" y="0.9" class="st1" width="3" height="1"/>
<rect x="10" y="1.9" class="st1" width="2" height="1"/>
<rect x="3" y="7.9" width="1" height="1"/>
<rect x="5" y="7.9" width="2" height="1"/>
<rect x="4" y="8.9" width="2" height="1"/>
<rect x="3" y="9.9" width="2" height="1"/>
<rect x="3" y="10.9" width="2" height="1"/>
<rect x="3" y="11.9" width="3" height="1"/>
<rect x="4" y="12.9" width="3" height="1"/>
<rect x="9" y="12.9" width="3" height="1"/>
<rect x="10" y="11.9" width="3" height="1"/>
<rect x="11" y="10.9" width="3" height="1"/>
<rect x="6" y="13.9" width="4" height="1"/>
<rect x="6" y="5.9" width="1" height="1"/>
<rect x="3" y="6.9" width="4" height="1"/>
<rect x="4" y="1.9" width="1" height="1"/>
<rect x="14" y="0.9" width="1" height="1"/>
<rect x="1" y="0.9" width="1" height="1"/>
<rect y="1.9" width="1" height="3"/>
<rect x="1" y="3.9" width="1" height="6"/>
<rect x="2" y="4.9" width="1" height="7"/>
<rect x="2" y="1.9" width="1" height="2"/>
<rect x="3" y="1.9" width="1" height="4"/>
<rect x="14" y="3.9" width="1" height="6"/>
<rect x="15" y="1.9" width="1" height="3"/>
<rect x="10" y="0.9" width="1" height="1"/>
<rect x="13" y="2.9" width="1" height="1"/>
</svg>
