<svg xmlns="http://www.w3.org/2000/svg" width="42" height="36.03" viewBox="0 0 42 36.03">
  <metadata><?xpacket begin="﻿" id="W5M0MpCehiHzreSzNTczkc9d"?>
<x:xmpmeta xmlns:x="adobe:ns:meta/" x:xmptk="Adobe XMP Core 5.6-c142 79.160924, 2017/07/13-01:06:39        ">
   <rdf:RDF xmlns:rdf="http://www.w3.org/1999/02/22-rdf-syntax-ns#">
      <rdf:Description rdf:about=""/>
   </rdf:RDF>
</x:xmpmeta>
                                                                                                    
                                                                                                    
                                                                                                    
                                                                                                    
                                                                                                    
                                                                                                    
                                                                                                    
                                                                                                    
                                                                                                    
                                                                                                    
                                                                                                    
                                                                                                    
                                                                                                    
                                                                                                    
                                                                                                    
                                                                                                    
                                                                                                    
                                                                                                    
                                                                                                    
                                                                                                    
                           
<?xpacket end="w"?></metadata>
<defs>
    <style>
      .cls-1 {
        fill: #b06c51;
        fill-rule: evenodd;
      }
    </style>
  </defs>
  <path id="_4" data-name="4" class="cls-1" d="M981.448,1700.35l-20.012-9.93a1.024,1.024,0,0,0-.872,0l-20.013,9.93a1.009,1.009,0,0,0-.551.9v23.18a1.9,1.9,0,0,0,1.895,1.91H980.1a1.9,1.9,0,0,0,1.895-1.91v-23.18a1.009,1.009,0,0,0-.551-0.9h0Zm-8.387,13.22H948.938v-3.42h24.123v3.42Zm-24.123,1.99h24.123v3.43H948.938v-3.43Zm24.123-7.4H948.938v-3.55h24.123v3.55Zm-24.123,12.82h24.123v3.37H948.938v-3.37Zm31.087,3.37h-4.989v-20.74a0.987,0.987,0,0,0-.987-0.99h-26.1a0.987,0.987,0,0,0-.988.99v20.74h-4.989v-22.48L961,1692.42l19.025,9.45v22.48Zm0,0" transform="translate(-940 -1690.31)"/>
</svg>
