<?xml version="1.0" encoding="utf-8"?>
<!-- Generator: Adobe Illustrator 22.0.0, SVG Export Plug-In . SVG Version: 6.00 Build 0)  -->
<svg version="1.1" id="Слой_1" xmlns="http://www.w3.org/2000/svg" xmlns:xlink="http://www.w3.org/1999/xlink" x="0px" y="0px"
	 viewBox="0 0 43 49.8" style="enable-background:new 0 0 43 49.8;" xml:space="preserve">
<style type="text/css">
	.st0{fill:#B06C51;}
</style>
<path class="st0" d="M21.9,27c-4.2,0-7.5,3.4-7.5,7.5c0,4.2,3.4,7.5,7.5,7.5c4.2,0,7.5-3.4,7.5-7.5C29.5,30.4,26.1,27,21.9,27
	L21.9,27z M21.9,40.4c-3.2,0-5.9-2.6-5.9-5.9c0-3.2,2.6-5.9,5.9-5.9c3.2,0,5.9,2.6,5.9,5.9C27.8,37.8,25.2,40.4,21.9,40.4L21.9,40.4
	z"/>
<path class="st0" d="M17.3,24.5c0.7,0,1.3-0.6,1.3-1.3s-0.6-1.3-1.3-1.3c-0.7,0-1.3,0.6-1.3,1.3S16.6,24.5,17.3,24.5L17.3,24.5z"/>
<path class="st0" d="M26.5,24.5c0.7,0,1.3-0.6,1.3-1.3s-0.6-1.3-1.3-1.3c-0.7,0-1.3,0.6-1.3,1.3S25.8,24.5,26.5,24.5L26.5,24.5z"/>
<path class="st0" d="M19.8,32.9c-0.7,0-1.3,0.6-1.3,1.3c0,0.7,0.6,1.3,1.3,1.3s1.3-0.6,1.3-1.3C21.1,33.4,20.5,32.9,19.8,32.9
	L19.8,32.9z"/>
<path class="st0" d="M24,32.9c-0.7,0-1.3,0.6-1.3,1.3c0,0.7,0.6,1.3,1.3,1.3s1.3-0.6,1.3-1.3C25.3,33.4,24.7,32.9,24,32.9L24,32.9z"
	/>
<path class="st0" d="M42.9,25.3c0-3.7-0.8-7.3-2.3-10.6l0.4-2.9L39.3,12l0,0l0,0h-0.2c-2.3-3.6-5.7-5.8-10.2-6.9
	c-1.2-2.9-4.1-4.9-7.4-4.9s-6.2,2-7.4,4.9C9.6,6.2,6.2,8.4,3.9,12H3.7l0,0l0,0L2,11.8l0.4,2.9c-1.5,3.4-2.3,6.9-2.3,10.6
	c0,6.9,2.8,13.4,7.6,17.9v3.9c0,1.4,1.1,2.5,2.5,2.5h6.4c0.6,0,1.1-0.5,1.1-1.1v-0.1c1.2,0.2,2.5,0.4,3.8,0.4s2.5-0.1,3.8-0.4v0.1
	c0,0.6,0.5,1.1,1.1,1.1h6.3c1.5,0,2.7-1.2,2.7-2.7v-3.7C40.1,38.7,42.9,32.2,42.9,25.3L42.9,25.3z M33.7,37.2
	c-0.1,0.2-0.3,0.4-0.4,0.6c-0.1,0.2-0.2,0.3-0.4,0.5c-0.1,0.2-0.3,0.3-0.4,0.5c-0.1,0.2-0.3,0.3-0.5,0.5c-0.1,0.2-0.3,0.3-0.4,0.4
	c-0.2,0.2-0.4,0.3-0.6,0.5c-0.1,0.1-0.3,0.2-0.4,0.4c-0.2,0.2-0.4,0.3-0.7,0.5c-0.1,0.1-0.3,0.2-0.4,0.3c-0.3,0.2-0.5,0.3-0.8,0.5
	c-0.1,0.1-0.2,0.1-0.3,0.2c-0.3,0.2-0.7,0.3-1,0.5c-0.1,0-0.1,0.1-0.2,0.1c-1.7,0.7-3.7,1.1-5.7,1.1s-3.9-0.4-5.7-1.1
	c-0.1,0-0.1-0.1-0.2-0.1c-0.4-0.2-0.7-0.3-1-0.5c-0.1-0.1-0.2-0.1-0.3-0.2c-0.3-0.2-0.5-0.3-0.8-0.5c-0.1-0.1-0.3-0.2-0.4-0.3
	c-0.2-0.2-0.4-0.3-0.7-0.5c-0.1-0.1-0.3-0.2-0.4-0.4c-0.2-0.2-0.4-0.3-0.6-0.5c-0.2-0.1-0.3-0.3-0.4-0.4c-0.2-0.2-0.3-0.3-0.5-0.5
	c-0.1-0.2-0.3-0.3-0.4-0.5C10,38.1,9.9,38,9.7,37.8c-0.1-0.2-0.3-0.4-0.4-0.6c-1.5-2.3-2.4-5.1-2.4-8c0-2,0.4-3.9,1.1-5.6
	c0-0.2,0.1-0.4,0.2-0.6s0.2-0.5,0.3-0.7c0.1-0.1,0.2-0.3,0.2-0.4c0.1-0.3,0.3-0.5,0.5-0.8c0.1-0.1,0.1-0.2,0.2-0.3
	c0.5-0.7,1.1-1.4,1.7-2c0.1-0.1,0.1-0.1,0.2-0.2c0.2-0.2,0.5-0.5,0.8-0.7c0.1-0.1,0.2-0.2,0.3-0.2c0.3-0.2,0.5-0.4,0.8-0.6
	c0.1-0.1,0.2-0.1,0.3-0.2c2.3-1.6,5.1-2.5,8.1-2.5s5.8,0.9,8.1,2.5c0.1,0.1,0.2,0.1,0.3,0.2c0.3,0.2,0.5,0.4,0.8,0.6
	c0.1,0.1,0.2,0.2,0.3,0.2c0.3,0.2,0.5,0.4,0.7,0.7c0.1,0.1,0.1,0.1,0.2,0.2c0.6,0.6,1.2,1.3,1.7,2c0.1,0.1,0.1,0.2,0.2,0.3
	c0.2,0.3,0.3,0.5,0.5,0.8c0.1,0.1,0.2,0.3,0.2,0.4c0.1,0.2,0.2,0.5,0.3,0.7s0.1,0.3,0.2,0.5c0.7,1.7,1.1,3.6,1.1,5.6
	C36.2,32.1,35.3,34.8,33.7,37.2L33.7,37.2z M7.2,21.1c-0.4-0.9-0.9-1.6-1.4-2.2C5.1,18,4.5,17.2,4.3,16L4,13.7l0.9,0.1
	c2.4,0.2,4.3,1.3,6.3,2.3c0.1,0,0.2,0.1,0.3,0.1l-0.1,0.1c-0.2,0.1-0.4,0.3-0.5,0.5c-0.2,0.2-0.5,0.4-0.7,0.6
	c-0.1,0.1-0.3,0.3-0.4,0.4c-0.2,0.2-0.5,0.5-0.7,0.7C9,18.7,8.9,18.8,8.7,19c-0.2,0.3-0.4,0.5-0.6,0.8c-0.2,0.2-0.3,0.5-0.4,0.7
	C7.5,20.8,7.3,21,7.2,21.1L7.2,21.1z M35.4,20.6c-0.1-0.2-0.3-0.5-0.4-0.7c-0.2-0.3-0.4-0.5-0.6-0.8c-0.1-0.2-0.2-0.3-0.4-0.5
	c-0.2-0.3-0.4-0.5-0.7-0.7c-0.1-0.1-0.3-0.3-0.4-0.4c-0.2-0.2-0.4-0.4-0.7-0.6c-0.2-0.2-0.4-0.3-0.5-0.5c-0.1,0-0.1-0.1-0.1-0.1
	c0.1,0,0.2-0.1,0.3-0.1c2-1.1,3.9-2.1,6.3-2.3l0.9-0.1l-0.3,2.3c-0.2,1.2-0.8,2-1.5,2.9c-0.5,0.6-1,1.3-1.4,2.2
	C35.7,21,35.5,20.8,35.4,20.6L35.4,20.6z M21.5,1.9c2.8,0,5.1,1.8,5.9,4.2c0.1,0.3,0.2,0.6,0.2,1v0.1c0.1,0.3,0.1,0.6,0.1,1
	c0,0.4,0,0.9-0.1,1.3c-0.1,0-0.1,0-0.2-0.1c-0.3-0.1-0.6-0.3-1-0.4c-0.1,0-0.3-0.1-0.4-0.1c-0.3-0.1-0.6-0.2-0.9-0.3
	c-0.2-0.1-0.4-0.1-0.6-0.1s-0.4-0.1-0.7-0.1c-0.2-0.1-0.4-0.1-0.7-0.2c-0.2,0-0.3,0-0.5-0.1l0,0c-0.4,0-0.8-0.1-1.1-0.1
	c0,0,0,0-0.1,0c-0.3,0-0.6,0-0.9,0c-0.1,0-0.1,0-0.2,0c-0.3,0-0.6,0-0.9,0.1c-0.1,0-0.1,0-0.2,0h-0.1c-0.3,0-0.6,0.1-0.9,0.1
	c-0.2,0-0.3,0.1-0.4,0.1c-0.3,0.1-0.7,0.2-1,0.3c-0.2,0.1-0.5,0.1-0.7,0.2H16c-0.1,0-0.2,0.1-0.3,0.1S15.5,9,15.5,9
	c-0.1-0.4-0.1-0.7-0.1-1.1c0-0.3,0-0.6,0.1-1V6.8c0.1-0.3,0.1-0.6,0.2-1C16.4,3.7,18.8,1.9,21.5,1.9L21.5,1.9z M13.6,7L13.6,7
	c-0.1,0.4-0.1,0.8-0.1,1.2c0,0.6,0.1,1.3,0.2,1.9c-0.8,0.5-1.6,1.1-2.3,1.8c-0.3,0.3-0.3,0.9,0,1.2c0.3,0.3,0.9,0.3,1.2,0
	c0.7-0.7,1.5-1.3,2.4-1.8h0.1c0.2-0.1,0.4-0.2,0.6-0.3c0.1-0.1,0.3-0.1,0.4-0.2c0.1,0,0.2-0.1,0.3-0.1c0.2-0.1,0.5-0.2,0.7-0.2
	c0.3-0.1,0.7-0.2,1-0.3c0.1,0,0.2,0,0.3-0.1C18.7,10,19,10,19.3,10c0.1,0,0.1,0,0.2,0c0.3,0,0.6-0.1,0.9-0.1c0.2,0,0.4,0,0.5,0
	s0.2,0,0.3,0c0.4,0,0.8,0,1.2,0c0.5,0,0.9,0.1,1.4,0.2l0,0c0.5,0.1,0.9,0.2,1.3,0.3h0.1c0.4,0.1,0.8,0.3,1.2,0.4c0,0,0,0,0.1,0
	c0.4,0.2,0.8,0.4,1.2,0.6c0.1,0.1,0.2,0.1,0.3,0.2l0.2,0.1c0.7,0.4,1.2,0.9,1.8,1.4c0.2,0.2,0.4,0.3,0.6,0.3s0.4-0.1,0.6-0.3
	c0.3-0.3,0.3-0.9,0-1.2c-0.6-0.6-1.3-1.1-2-1.6c0.2-0.7,0.3-1.4,0.3-2.1c0-0.4,0-0.7-0.1-1.1V7c3.4,0.9,6,2.7,7.8,5.2h-0.1
	c-0.1,0-0.2,0-0.3,0.1c-0.2,0-0.4,0.1-0.5,0.1s-0.2,0.1-0.4,0.1s-0.3,0.1-0.5,0.2c-0.1,0-0.2,0.1-0.3,0.1c-0.2,0.1-0.3,0.1-0.5,0.2
	c-0.1,0-0.2,0.1-0.3,0.1c-0.2,0.1-0.3,0.1-0.5,0.2c-0.1,0-0.2,0.1-0.3,0.1c-0.2,0.1-0.3,0.2-0.5,0.2c-0.1,0-0.2,0.1-0.3,0.1
	c-0.2,0.1-0.4,0.2-0.6,0.3c-0.1,0-0.1,0.1-0.2,0.1c-0.3,0.1-0.5,0.3-0.8,0.4c-0.3,0.2-0.7,0.4-1,0.6c-2.5-1.5-5.4-2.4-8.5-2.4
	s-6.1,0.9-8.5,2.4c-0.3-0.2-0.7-0.4-1-0.6c-0.3-0.1-0.5-0.3-0.8-0.4c-0.1,0-0.1-0.1-0.2-0.1c-0.2-0.1-0.4-0.2-0.6-0.3
	c-0.1,0-0.2-0.1-0.3-0.1c-0.2-0.1-0.3-0.2-0.5-0.2c-0.1,0-0.2-0.1-0.3-0.1c-0.2-0.1-0.3-0.1-0.5-0.2c-0.1,0-0.2-0.1-0.3-0.1
	c-0.2-0.1-0.3-0.1-0.5-0.2c-0.1,0-0.2-0.1-0.3-0.1c-0.2-0.1-0.3-0.1-0.5-0.2c-0.1,0-0.2-0.1-0.4-0.1c-0.2,0-0.4-0.1-0.5-0.1
	s-0.2,0-0.3-0.1H6C7.7,9.7,10.3,7.9,13.6,7L13.6,7z M1.8,25.3c0-2.6,0.4-5.2,1.2-7.6c0,0,0,0,0,0.1c0.1,0.2,0.2,0.4,0.3,0.6l0,0
	c0.1,0.2,0.2,0.3,0.3,0.5c0,0.1,0.1,0.1,0.1,0.2c0.1,0.1,0.2,0.2,0.3,0.4l0.1,0.1c0.1,0.2,0.2,0.3,0.3,0.5c0.6,0.7,1.1,1.4,1.4,2.3
	l0.4,1c-0.7,1.8-1.1,3.8-1.1,5.8c0,3.2,0.9,6.1,2.5,8.7V41C3.9,36.8,1.8,31.2,1.8,25.3L1.8,25.3z M9.4,47.1V40
	c0.2,0.2,0.3,0.3,0.5,0.5c0.1,0.1,0.1,0.1,0.2,0.2c0.3,0.3,0.7,0.6,1,0.9c0.1,0.1,0.2,0.1,0.2,0.2c0.7,0.6,1.5,1.1,2.4,1.6
	c0.1,0,0.1,0.1,0.2,0.1c0.7,0.4,1.5,0.7,2.2,1v3.4h-5.9C9.7,48,9.4,47.6,9.4,47.1L9.4,47.1z M17.7,46.7V45c1.2,0.3,2.5,0.5,3.8,0.5
	s2.6-0.2,3.8-0.5v1.7C22.8,47.2,20.2,47.2,17.7,46.7L17.7,46.7z M33.6,47c0,0.5-0.5,1-1,1h-5.7v-3.4c0.8-0.3,1.5-0.6,2.2-1
	c0.1,0,0.1-0.1,0.2-0.1c0.8-0.5,1.6-1,2.4-1.6c0.1-0.1,0.1-0.1,0.2-0.2c0.4-0.3,0.7-0.6,1-0.9c0.1-0.1,0.1-0.1,0.2-0.2
	c0.2-0.2,0.3-0.3,0.5-0.5C33.6,40.1,33.6,47,33.6,47z M35.3,37.8c1.6-2.5,2.5-5.5,2.5-8.7c0-2.1-0.4-4-1.1-5.8l0.4-1
	c0.3-0.9,0.9-1.6,1.4-2.3c0.1-0.1,0.2-0.3,0.3-0.5l0.1-0.1c0.1-0.1,0.2-0.2,0.3-0.4c0,0,0.1-0.1,0.1-0.2c0.1-0.2,0.2-0.3,0.3-0.5
	l0,0c0.1-0.2,0.2-0.4,0.3-0.6c0,0,0,0,0-0.1c0.8,2.4,1.2,5,1.2,7.6c0,5.9-2.1,11.4-5.9,15.5v-2.9H35.3z"/>
</svg>
