<?xml version="1.0" encoding="utf-8"?>
<!-- Generator: Adobe Illustrator 22.0.0, SVG Export Plug-In . SVG Version: 6.00 Build 0)  -->
<svg version="1.1" id="Слой_1" xmlns="http://www.w3.org/2000/svg" xmlns:xlink="http://www.w3.org/1999/xlink" x="0px" y="0px"
	 viewBox="0 0 41 36" style="enable-background:new 0 0 41 36;" xml:space="preserve">
<style type="text/css">
	.st0{fill:#B06C51;}
</style>
<path class="st0" d="M25.4,12.9h1.2c0.5,0,0.8-0.4,0.8-0.8c0-0.5-0.4-0.8-0.8-0.8h-1.2c-0.5,0-0.8,0.4-0.8,0.8
	C24.6,12.5,25,12.9,25.4,12.9L25.4,12.9z M25.4,12.9"/>
<path class="st0" d="M40.8,33.1l-1-2.5c-0.3-0.7-1.1-1.2-1.9-1.2H37V12.9h1.8c0.8,0,1.5-0.5,1.6-1.3c0.2-0.7-0.2-1.5-0.9-1.9
	L22.2,1.6c-1.1-0.5-2.4-0.5-3.5,0L1.4,9.7c-0.7,0.3-1.1,1.1-0.9,1.9c0.2,0.8,0.8,1.3,1.6,1.3h1.7v16.5H3.1c-0.8,0-1.6,0.5-1.9,1.2
	l-1,2.5c-0.2,0.7-0.2,1.4,0.2,1.9c0.4,0.6,1,0.9,1.7,0.9h36.9c0.7,0,1.3-0.3,1.7-0.9C41.1,34.5,41.1,33.8,40.8,33.1L40.8,33.1z
	 M2.1,11.2l17.3-8.2c0.7-0.3,1.5-0.3,2.1,0l17.3,8.2h-2.7c-0.5,0-0.8,0.4-0.8,0.8c0,0.1,0,0.1,0,0.2c0,0,0,0.1,0,0.2v17H32V17.8
	c0-1.8-1.5-3.3-3.3-3.3c-1.8,0-3.3,1.5-3.3,3.3v11.6h-1.7V17.8c0-1.8-1.5-3.3-3.3-3.3c-1.8,0-3.3,1.5-3.3,3.3v11.6h-1.7V17.8
	c0-1.8-1.5-3.3-3.3-3.3c-1.8,0-3.3,1.5-3.3,3.3v11.6H5.5V12.9h16.2c0.5,0,0.8-0.4,0.8-0.8c0-0.5-0.4-0.8-0.8-0.8H2.1z M30.4,17.8
	v11.6H27V17.8c0-0.9,0.7-1.7,1.7-1.7S30.4,16.9,30.4,17.8L30.4,17.8z M22.1,17.8v11.6h-3.3V17.8c0-0.9,0.7-1.7,1.7-1.7
	C21.3,16.2,22.1,16.9,22.1,17.8L22.1,17.8z M13.8,17.8v11.6h-3.3V17.8c0-0.9,0.7-1.7,1.7-1.7C13,16.2,13.8,16.9,13.8,17.8L13.8,17.8
	z M39.3,34.2c0,0-0.2,0.2-0.3,0.2H2.1c-0.2,0-0.3-0.1-0.3-0.2c0,0-0.1-0.2,0-0.4l1-2.4c0.1-0.2,0.2-0.2,0.4-0.2h34.8
	c0.2,0,0.3,0.1,0.4,0.2l1,2.5C39.4,34,39.3,34.1,39.3,34.2L39.3,34.2z M39.3,34.2"/>
</svg>
