<?xml version="1.0" encoding="utf-8"?>
<!-- Generator: Adobe Illustrator 22.0.0, SVG Export Plug-In . SVG Version: 6.00 Build 0)  -->
<svg version="1.1" id="Слой_1" xmlns="http://www.w3.org/2000/svg" xmlns:xlink="http://www.w3.org/1999/xlink" x="0px" y="0px"
	 viewBox="0 0 46 34" style="enable-background:new 0 0 46 34;" xml:space="preserve">
<style type="text/css">
	.st0{fill:#B06C51;}
</style>
<path class="st0" d="M44.4,7L4,0.5V4L1.6,3.8V7H0v26.9h45.9V7H44.4z M5.5,2.4l21.2,3.4L5.5,4.1V2.4z M3.2,5.5L4,5.6v0L9.3,6l12.8,1
	h-19V5.5z M44.3,32.3H1.6V8.6h42.7V32.3z"/>
<path class="st0" d="M44.3,32.3"/>
<path class="st0" d="M5.1,9.4c-1.5,0-2.8,1.2-2.8,2.8s1.2,2.8,2.8,2.8c1.5,0,2.8-1.2,2.8-2.8S6.7,9.4,5.1,9.4z M5.1,13.3
	c-0.7,0-1.2-0.5-1.2-1.2C4,11.5,4.5,11,5.1,11c0.7,0,1.2,0.5,1.2,1.2C6.3,12.8,5.8,13.3,5.1,13.3z"/>
<path class="st0" d="M40.8,9.4c-1.5,0-2.8,1.2-2.8,2.8s1.2,2.8,2.8,2.8c1.5,0,2.8-1.2,2.8-2.8S42.3,9.4,40.8,9.4z M40.8,13.3
	c-0.7,0-1.2-0.5-1.2-1.2c0-0.7,0.5-1.2,1.2-1.2c0.7,0,1.2,0.5,1.2,1.2C42,12.8,41.4,13.3,40.8,13.3z"/>
<path class="st0" d="M42,12.2"/>
<path class="st0" d="M5.1,26c-1.5,0-2.8,1.2-2.8,2.8c0,1.5,1.2,2.8,2.8,2.8c1.5,0,2.8-1.2,2.8-2.8C7.9,27.3,6.7,26,5.1,26z M5.1,30
	C4.5,30,4,29.4,4,28.8c0-0.7,0.5-1.2,1.2-1.2c0.7,0,1.2,0.5,1.2,1.2C6.3,29.4,5.8,30,5.1,30z"/>
<path class="st0" d="M5.1,30"/>
<path class="st0" d="M40.8,26c-1.5,0-2.8,1.2-2.8,2.8c0,1.5,1.2,2.8,2.8,2.8c1.5,0,2.8-1.2,2.8-2.8C43.5,27.3,42.3,26,40.8,26z
	 M40.8,30c-0.7,0-1.2-0.5-1.2-1.2c0-0.7,0.5-1.2,1.2-1.2c0.7,0,1.2,0.5,1.2,1.2C42,29.4,41.4,30,40.8,30z"/>
<path class="st0" d="M40.8,30"/>
<path class="st0" d="M41.1,15.7c-0.1,0-0.2,0-0.3,0c-2,0-3.6-1.6-3.6-3.6c0-0.1,0-0.2,0-0.3l0.1-0.9h-8.7C27,10,25,9.4,23,9.4
	c-2.1,0-4,0.6-5.7,1.6H8.6l0.1,0.9c0,0.1,0,0.2,0,0.3c0,2-1.6,3.6-3.6,3.6c-0.1,0-0.2,0-0.3,0L4,15.6v9.7l0.9-0.1c0.1,0,0.2,0,0.3,0
	c2,0,3.6,1.6,3.6,3.6c0,0.1,0,0.2,0,0.3L8.6,30h8.6c0.1,0.1,0.3,0.2,0.4,0.2c0,0,0.1,0,0.1,0.1c0.3,0.1,0.5,0.3,0.8,0.4
	c0.1,0,0.1,0.1,0.2,0.1c0.3,0.1,0.6,0.2,0.9,0.3c0,0,0,0,0,0c0.3,0.1,0.6,0.2,1,0.3c0.1,0,0.2,0,0.2,0c0.3,0.1,0.5,0.1,0.8,0.1
	c0.1,0,0.2,0,0.3,0c0.3,0,0.7,0.1,1,0.1c0.3,0,0.7,0,1-0.1c0.1,0,0.2,0,0.3,0c0.2,0,0.5-0.1,0.7-0.1c0.1,0,0.2,0,0.3-0.1
	c0.3-0.1,0.6-0.1,0.9-0.2c0.1,0,0.3-0.1,0.4-0.1c0.2-0.1,0.3-0.1,0.5-0.2c0.1-0.1,0.3-0.1,0.4-0.2c0.2-0.1,0.3-0.1,0.5-0.2
	c0.2-0.1,0.4-0.2,0.6-0.3c0,0,0.1,0,0.1-0.1h8.7l-0.1-0.9c0-0.1,0-0.2,0-0.3c0-2,1.6-3.6,3.6-3.6c0.1,0,0.2,0,0.3,0l0.9,0.1v-9.7
	L41.1,15.7z M10.3,28.4c-0.2-2.5-2.2-4.5-4.7-4.7v-6.4c2.5-0.2,4.5-2.2,4.7-4.7h4.9c0,0,0,0,0,0c-0.1,0.1-0.3,0.3-0.4,0.4
	c-0.1,0.1-0.3,0.3-0.4,0.4c0,0.1-0.1,0.1-0.1,0.2c-1.3,1.6-2.1,3.6-2.4,5.7c0,0,0,0,0,0.1c0,0.4-0.1,0.8-0.1,1.1
	c0,0.4,0,0.8,0.1,1.1c0,0,0,0.1,0,0.1c0.2,2.1,1.1,4.1,2.3,5.7c0,0.1,0.1,0.1,0.1,0.2c0.1,0.1,0.2,0.3,0.4,0.4
	c0.1,0.1,0.3,0.3,0.4,0.4c0,0,0,0,0,0H10.3z M26.9,29.1c-0.3,0.1-0.6,0.2-0.8,0.3c0,0-0.1,0-0.1,0c-1.7,0.6-3.5,0.6-5.2,0.2
	c0,0-0.1,0-0.2,0c-0.3-0.1-0.5-0.1-0.8-0.2c-0.1,0-0.2-0.1-0.3-0.1c-0.2-0.1-0.4-0.1-0.5-0.2c-0.1,0-0.2-0.1-0.3-0.1l2.1-1
	c0.5-0.2,0.7-0.7,0.7-1.2v-1.3l-0.5-0.2c-1-0.4-1.7-1.3-2-2.6l-0.1-0.4l-0.4-0.1c-0.3-0.1-0.4-0.3-0.4-0.6v-0.7
	c0-0.3,0.2-0.4,0.3-0.5l0.4-0.2l0-0.4c0.1-0.6,0.2-1.2,0.4-1.7c0.1-0.2,0.2-0.4,0.2-0.5c0.2-0.5,0.3-0.7,0.3-1.2
	c0.8,0.4,1.7,0.6,2.7,0.5c0.1,0,0.2,0,0.3,0c2.5,0,3.7,0.9,4,2.9l0.1,0.4l0.4,0.2c0.2,0.1,0.3,0.3,0.3,0.5v0.7
	c0,0.3-0.2,0.5-0.4,0.6l-0.4,0.1l-0.1,0.4c-0.3,1.3-1,2.1-2,2.6l-0.5,0.2v1.3c0,0.5,0.3,1,0.7,1.2L26.9,29.1
	C27,29.1,27,29.1,26.9,29.1z M30,26.8c-0.1,0.1-0.1,0.2-0.2,0.2c-0.4,0.4-0.8,0.7-1.2,1.1c-0.1-0.1-0.3-0.2-0.4-0.3l-2.5-1.3v-0.1
	c1.1-0.6,1.9-1.6,2.3-3c0.7-0.4,1.1-1.1,1.1-1.9v-0.7c0-0.7-0.3-1.3-0.8-1.7c-0.3-1.9-1.6-4-5.5-4c-0.2,0-0.3,0-0.4,0
	c-0.6,0-1.4,0-2.2-0.5c-0.3-0.2-0.5-0.4-0.6-0.5c-0.3-0.3-0.7-0.4-1.1-0.3c-0.4,0.2-0.6,0.5-0.6,1c0,0.3,0.1,0.6,0.1,0.9
	c0.1,0.6,0.1,0.6,0,1c-0.1,0.2-0.2,0.3-0.3,0.6c-0.2,0.6-0.4,1.2-0.5,1.8c-0.5,0.4-0.8,1-0.8,1.7v0.7c0,0.8,0.4,1.5,1.1,1.9
	c0.4,1.4,1.2,2.4,2.3,3v0.1l-2.5,1.3c-0.1,0-0.2,0.1-0.2,0.2c-0.4-0.3-0.7-0.6-1.1-0.9C16,27,16,26.9,15.9,26.8
	c-0.2-0.2-0.3-0.4-0.5-0.6c-0.1-0.1-0.2-0.2-0.2-0.3c-0.1-0.2-0.3-0.4-0.4-0.6c-0.1-0.1-0.1-0.2-0.2-0.3c-0.2-0.3-0.3-0.6-0.4-0.9
	c-0.1-0.1-0.1-0.2-0.1-0.4c-0.1-0.2-0.2-0.4-0.2-0.7c0-0.1-0.1-0.3-0.1-0.4c-0.1-0.2-0.1-0.5-0.1-0.7c0-0.1,0-0.2-0.1-0.3
	c0-0.4-0.1-0.7-0.1-1.1c0-0.4,0-0.7,0.1-1.1c0-0.1,0-0.2,0.1-0.4c0-0.2,0.1-0.5,0.1-0.7c0-0.1,0.1-0.3,0.1-0.4
	c0.1-0.2,0.1-0.4,0.2-0.7c0-0.1,0.1-0.2,0.1-0.4c0.1-0.3,0.3-0.6,0.4-0.9c0.1-0.1,0.1-0.2,0.2-0.3c0.1-0.2,0.3-0.4,0.4-0.6
	c0.1-0.1,0.2-0.2,0.2-0.3c0.2-0.2,0.3-0.4,0.5-0.6c0.1-0.1,0.1-0.2,0.2-0.2c0.5-0.5,1.1-1,1.8-1.4c1.5-0.9,3.2-1.5,5.1-1.5
	c1.9,0,3.6,0.5,5.1,1.5c0.7,0.4,1.2,0.9,1.8,1.4c0.1,0.1,0.1,0.2,0.2,0.2c0.2,0.2,0.3,0.4,0.5,0.6c0.1,0.1,0.2,0.2,0.2,0.3
	c0.1,0.2,0.3,0.4,0.4,0.6c0.1,0.1,0.1,0.2,0.2,0.3c0.2,0.3,0.3,0.6,0.4,0.9c0,0.1,0.1,0.2,0.1,0.4c0.1,0.2,0.2,0.4,0.2,0.7
	c0,0.1,0.1,0.3,0.1,0.4c0.1,0.2,0.1,0.5,0.1,0.7c0,0.1,0,0.2,0.1,0.4c0,0.4,0.1,0.7,0.1,1.1c0,0.4,0,0.7-0.1,1.1
	c0,0.1,0,0.2-0.1,0.3c0,0.2-0.1,0.5-0.1,0.7c0,0.1-0.1,0.3-0.1,0.4c-0.1,0.2-0.1,0.5-0.2,0.7c0,0.1-0.1,0.2-0.1,0.4
	c-0.1,0.3-0.3,0.6-0.4,0.9c-0.1,0.1-0.1,0.2-0.2,0.3c-0.1,0.2-0.3,0.4-0.4,0.6c-0.1,0.1-0.2,0.2-0.2,0.3
	C30.3,26.4,30.2,26.6,30,26.8z M40.4,23.7c-2.5,0.2-4.5,2.2-4.7,4.7h-4.9c0,0,0,0,0,0c0.1-0.1,0.3-0.3,0.4-0.4
	c0.1-0.1,0.3-0.3,0.4-0.4c0-0.1,0.1-0.1,0.1-0.2c1.3-1.6,2.1-3.6,2.3-5.7c0,0,0-0.1,0-0.1c0-0.4,0.1-0.7,0.1-1.1
	c0-0.4,0-0.8-0.1-1.1c0,0,0-0.1,0-0.1c-0.2-2.1-1.1-4.1-2.4-5.7c0-0.1-0.1-0.1-0.1-0.2c-0.1-0.1-0.2-0.3-0.4-0.4
	c-0.1-0.1-0.3-0.3-0.4-0.4c0,0,0,0,0,0h4.9c0.2,2.5,2.2,4.5,4.7,4.7V23.7z"/>
<path class="st0" d="M10.3,28.4"/>
</svg>
