<svg xmlns="http://www.w3.org/2000/svg" width="49.97" height="49.97" viewBox="0 0 49.97 49.97">
  <metadata><?xpacket begin="﻿" id="W5M0MpCehiHzreSzNTczkc9d"?>
<x:xmpmeta xmlns:x="adobe:ns:meta/" x:xmptk="Adobe XMP Core 5.6-c142 79.160924, 2017/07/13-01:06:39        ">
   <rdf:RDF xmlns:rdf="http://www.w3.org/1999/02/22-rdf-syntax-ns#">
      <rdf:Description rdf:about=""/>
   </rdf:RDF>
</x:xmpmeta>
                                                                                                    
                                                                                                    
                                                                                                    
                                                                                                    
                                                                                                    
                                                                                                    
                                                                                                    
                                                                                                    
                                                                                                    
                                                                                                    
                                                                                                    
                                                                                                    
                                                                                                    
                                                                                                    
                                                                                                    
                                                                                                    
                                                                                                    
                                                                                                    
                                                                                                    
                                                                                                    
                           
<?xpacket end="w"?></metadata>
<defs>
    <style>
      .cls-1 {
        fill: #b06c51;
        fill-rule: evenodd;
      }
    </style>
  </defs>
  <path id="_8" data-name="8" class="cls-1" d="M1115.41,1135.3v-2.02l-23.92-17.32h-2.13l-5.39,3.9v-3.09h1.62v-4.84h-16.12v4.84h1.61v12.42l-5.64,4.09v2.02h4.03v26.6h41.91v-3.23h4.03v-20.95h-4.03v-2.42h4.03Zm-44.33-21.76h12.89v1.62h-12.89v-1.62Zm1.61,3.23h9.67v4.25l-9.67,7.01v-11.26Zm-5.07,16.92,22.26-16.12h1.09l22.26,16.12h-45.61Zm46.18,23.37h-12.98a10.447,10.447,0,0,0,0-17.73h12.98v17.73Zm-27.41-8.86a8.865,8.865,0,1,1,8.87,8.86A8.881,8.881,0,0,1,1086.39,1148.2Zm3.31,8.86h-12.98v-17.73h12.98A10.447,10.447,0,0,0,1089.7,1157.06Zm-14.59-19.34v20.95h34.66v1.61h-38.69V1135.3h38.69v2.42h-34.66Zm15.31-4.84a6.445,6.445,0,1,0-6.45-6.44A6.451,6.451,0,0,0,1090.42,1132.88Zm0-11.28a4.835,4.835,0,1,1-4.83,4.84A4.844,4.844,0,0,1,1090.42,1121.6Zm5.64,20.95v-1.61h-1.61v1.61a3.225,3.225,0,0,0,0,6.45h1.61a1.61,1.61,0,1,1,0,3.22h-1.61a1.609,1.609,0,0,1-1.61-1.61v-0.8h-1.61v0.8a3.226,3.226,0,0,0,3.22,3.23v1.61h1.61v-1.61a3.225,3.225,0,1,0,0-6.45h-1.61a1.61,1.61,0,1,1,0-3.22h1.61a1.618,1.618,0,0,1,1.62,1.61v0.8h1.61v-0.8A3.235,3.235,0,0,0,1096.06,1142.55Zm11.29,4.84h1.61V1149h-1.61v-1.61Zm-25.79,0h1.61V1149h-1.61v-1.61Z" transform="translate(-1065.44 -1111.94)"/>
</svg>
