<?xml version="1.0" encoding="utf-8"?>
<!-- Generator: Adobe Illustrator 22.0.0, SVG Export Plug-In . SVG Version: 6.00 Build 0)  -->
<svg version="1.1" id="Слой_1" xmlns="http://www.w3.org/2000/svg" xmlns:xlink="http://www.w3.org/1999/xlink" x="0px" y="0px"
	 viewBox="0 0 17 22" style="enable-background:new 0 0 17 22;" xml:space="preserve">
<style type="text/css">
	.st0{opacity:0.5;fill:#FFFFFF;enable-background:new    ;}
</style>
<g>
	<path class="st0" d="M15.3,5.4c0.3-0.2,0.3-0.7,0.1-1l0,0c-0.2-0.3-0.6-0.3-0.9-0.1c-0.7,0.6-1.6,1-2.6,1.2C13,4.2,14,2.7,13.7,2
		c-0.1-0.3-0.4-0.5-0.8-0.5c-0.6,0-1.2-0.2-1.6-0.7C10.9,0.3,10.3,0,9.7,0C9.1,0,8.5,0.3,8.1,0.7c-0.4,0.4-1,0.7-1.6,0.6
		c-0.6,0-1.2-0.2-1.7-0.5C3.7,0.4,2.9,0,2.4,0.5C2.1,0.7,1.9,1,1.9,1.4c0,1.2,2.2,3.5,3.5,4.8C3.9,7.6,0,12,0,17.9
		C-0.1,20.1,1.7,22,3.9,22h9c2.2-0.1,3.9-1.9,3.9-4.1c0-5.2-3.1-9.2-4.9-11.1C13.2,6.6,14.3,6.2,15.3,5.4z M3.4,1.7
		C3.7,1.8,4,2,4.3,2.1C5,2.4,5.7,2.7,6.5,2.7c0.9,0,1.7-0.3,2.4-0.9c0.2-0.2,0.5-0.4,0.8-0.4s0.6,0.2,0.8,0.4
		c0.5,0.5,1.1,0.8,1.8,0.9c-0.6,1-1.4,1.9-2.2,2.8H6.7C5.5,4.4,4.3,3.1,3.4,1.7z M12.9,20.6h-9c-1.5,0-2.6-1.3-2.6-2.8
		c0-5.8,4.5-10.2,5.4-11h3.4c0.9,0.8,5.4,5.1,5.4,11C15.6,19.3,14.4,20.6,12.9,20.6z"/>
	<path class="st0" d="M13.6,7.5c0,0.4,0.3,0.7,0.7,0.7c0.7,0,1.3,0.4,1.6,0.9c0.1,0.2,0.3,0.3,0.5,0.3l0,0c0.1,0,0.3,0,0.4-0.1
		c0.3-0.2,0.4-0.6,0.2-1c-0.6-0.9-1.6-1.5-2.7-1.5C13.9,6.9,13.6,7.2,13.6,7.5z"/>
	<path class="st0" d="M8.4,10.7c0.7,0,1.2,0.5,1.3,1.1l0,0c0.1,0.4,0.4,0.6,0.7,0.5c0.4-0.1,0.6-0.4,0.5-0.8c-0.1-1-0.9-1.8-1.9-2.1
		V8.9c0,0,0,0,0-0.1c0-0.4-0.3-0.6-0.7-0.6C8,8.3,7.7,8.6,7.8,8.9v0.4c-1.1,0.3-2,1.3-1.9,2.5c0,0.7,0.3,2,2.4,2.6l0,0
		c1.4,0.3,1.4,1,1.4,1.2v0.1c-0.1,0.7-0.6,1.2-1.3,1.1c-0.7,0-1.3-0.6-1.3-1.4c0,0,0,0,0-0.1c0-0.4-0.3-0.6-0.7-0.6
		c-0.4,0-0.6,0.3-0.6,0.7c0,1.2,0.8,2.3,1.9,2.6v0.4c0,0.4,0.3,0.7,0.6,0.7c0.4,0,0.7-0.3,0.6-0.7V18c1.1-0.3,2-1.3,1.9-2.5
		c0-0.7-0.3-2.1-2.4-2.6l0,0C7,12.5,7,11.9,7,11.7v-0.1C7.2,11.1,7.7,10.6,8.4,10.7z"/>
</g>
</svg>
