<svg xmlns="http://www.w3.org/2000/svg" width="28.844" height="26" viewBox="0 0 28.844 26">
  <defs>
    <style>
      .cls-1 {
        fill: #fff;
        fill-rule: evenodd;
      }
    </style>
  </defs>
  <path id="Фигура_22" data-name="Фигура 22" class="cls-1" d="M363.513,2866.86a1.61,1.61,0,0,0-1.256-.58,3.311,3.311,0,0,1-.532-0.08c-0.034-.09-0.072-0.2-0.116-0.32a17.434,17.434,0,0,0-1.217-2.81,4.668,4.668,0,0,1,1.308-1.5l1.428-.94-1.515-.79a9.248,9.248,0,0,0-5.765-1.01c-0.321-.07-0.69-0.14-1.092-0.22a4.623,4.623,0,1,0-8.448-.05,9.307,9.307,0,0,0-2.08.8,8.527,8.527,0,0,0-4.645,7.35c-0.236-.03-0.483-0.05-0.744-0.07a5.821,5.821,0,0,0-2.525-1.65,0.974,0.974,0,0,0-1.27.58,1.006,1.006,0,0,0,.573,1.29c0.14,0.05.273,0.11,0.4,0.16a1.929,1.929,0,0,0-1.027,1.54,2.128,2.128,0,0,0,.774,1.96,2.3,2.3,0,0,0,2.309.31,2.512,2.512,0,0,0,1.459-2.11h0.05a13.434,13.434,0,0,0,5.208,9.05l0.271,0.23h4.629v-1.68c0.765,0.02,1.794.04,2.47,0.06a11.878,11.878,0,0,0,.926,1.27l0.294,0.35h4.5v-3.18c0.523-.47,1.534-1.4,2.174-2.08,1.19-.07,3.113-0.8,3.727-4.63A1.469,1.469,0,0,0,363.513,2866.86Zm-26.157,2.11a0.388,0.388,0,0,1-.374-0.03,0.109,0.109,0,0,1-.04-0.13,0.967,0.967,0,0,1,.612-0.19A0.644,0.644,0,0,1,337.356,2868.97Zm13.19-14.97a2.69,2.69,0,1,1-2.654,2.69A2.677,2.677,0,0,1,350.546,2854Zm9.168,16.74-0.512-.05-0.333.4a36.453,36.453,0,0,1-2.626,2.53l-0.337.3V2876h-1.6a6.626,6.626,0,0,1-.674-1.05l-0.268-.57h-0.621c-0.681,0-4.009-.09-4.01-0.09l-1.013-.03V2876h-1.951c-3.844-3.32-4.266-6.85-4.266-8.23,0-3.18,1.162-5.29,3.656-6.64a8.3,8.3,0,0,1,2.48-.82c0.138,0.11.276,0.23,0.427,0.33-0.241.06-.481,0.13-0.717,0.21a1.007,1.007,0,0,0-.616,1.27,0.985,0.985,0,0,0,.933.68,1.165,1.165,0,0,0,.318-0.05,8,8,0,0,1,5.138-.04,0.985,0.985,0,0,0,1.242-.64,1,1,0,0,0-.631-1.26c-0.22-.07-0.444-0.13-0.669-0.19,0.1-.07.192-0.15,0.288-0.22,0.88,0.13,1.651.29,2.237,0.42l0.163,0.04,0.166-.02a7.921,7.921,0,0,1,3.46.22,5.77,5.77,0,0,0-1.021,1.75l-0.173.47,0.278,0.43a13.653,13.653,0,0,1,1.3,2.85,3.276,3.276,0,0,0,.47,1.03,2.543,2.543,0,0,0,1.522.65C361.5,2869.4,360.942,2870.86,359.714,2870.74Zm-2.822-6.28a1.46,1.46,0,1,0,1.44,1.46A1.455,1.455,0,0,0,356.892,2864.46Zm0,2a0.535,0.535,0,0,1-.531-0.54,0.531,0.531,0,1,1,1.062,0A0.535,0.535,0,0,1,356.892,2866.46Z" transform="translate(-334.969 -2852)"/>
</svg>
