<svg xmlns="http://www.w3.org/2000/svg" width="19.97" height="26" viewBox="0 0 19.97 26">
  <defs>
    <style>
      .cls-1 {
        fill: #fff;
        fill-rule: evenodd;
      }
    </style>
  </defs>
  <path id="Фигура_23" data-name="Фигура 23" class="cls-1" d="M1048.51,2860.6a3.8,3.8,0,1,0-3.87-3.8A3.839,3.839,0,0,0,1048.51,2860.6Zm0-5.6a1.8,1.8,0,1,1-1.84,1.8A1.818,1.818,0,0,1,1048.51,2855Zm4.48,6h-8.96a2.222,2.222,0,0,0-2.24,2.2v6.4a2.222,2.222,0,0,0,2.24,2.2h0.2v5a2.222,2.222,0,0,0,2.24,2.2h4.07a2.222,2.222,0,0,0,2.24-2.2v-5h0.21a2.228,2.228,0,0,0,2.24-2.2v-6.4A2.228,2.228,0,0,0,1052.99,2861Zm-4,6.31-0.48.48-0.49-.48,0.49-1.67Zm4.2,2.29a0.2,0.2,0,0,1-.2.2h-2.24v7a0.2,0.2,0,0,1-.21.2h-4.07a0.2,0.2,0,0,1-.2-0.2v-7h-2.24a0.2,0.2,0,0,1-.21-0.2v-6.4a0.2,0.2,0,0,1,.21-0.2h3.13l-1.26,4.32a1.011,1.011,0,0,0,.26.99l1.63,1.6a1.039,1.039,0,0,0,1.44,0l1.63-1.6a1.011,1.011,0,0,0,.26-0.99l-1.26-4.32h3.13a0.2,0.2,0,0,1,.2.2v6.4Zm6.93-.6v-1.4a1.02,1.02,0,0,0-2.04,0v1.4h-1.63v10h5.3v-10h-1.63Zm-0.41,8h-1.22v-6h1.22v6Z" transform="translate(-1041.78 -2853)"/>
</svg>
