<svg xmlns="http://www.w3.org/2000/svg" width="21.031" height="27" viewBox="0 0 21.031 27">
  <defs>
    <style>
      .cls-1 {
        fill: #fff;
        fill-rule: evenodd;
      }
    </style>
  </defs>
  <path id="Фигура_19" data-name="Фигура 19" class="cls-1" d="M700.488,2565.06a5.9,5.9,0,1,0-5.876-5.9A5.9,5.9,0,0,0,700.488,2565.06Zm0-9.8a3.9,3.9,0,1,1-3.884,3.9A3.9,3.9,0,0,1,700.488,2555.26Zm6.962,9.81a9.129,9.129,0,1,0-13.924,0l-3.542,8.8,4.694-.59,3.014,3.72,2.8-8.09,2.8,8.09,3.015-3.72,4.693,0.59ZM700.488,2552a7.16,7.16,0,1,1-7.138,7.16A7.156,7.156,0,0,1,700.488,2552Zm-3.507,20.96-1.455-1.8-2.427.3,1.988-4.93a9.083,9.083,0,0,0,3.56,1.61Zm8.47-1.8-1.456,1.8-1.665-4.82a9.223,9.223,0,0,0,3.559-1.61l1.989,4.93Z" transform="translate(-689.969 -2550)"/>
</svg>
