<svg xmlns="http://www.w3.org/2000/svg" width="51" height="32" viewBox="0 0 51 32">
  <defs>
    <style>
      .cls-1 {
        fill: #b06c51;
        fill-rule: evenodd;
        opacity: 0.1;
      }
    </style>
  </defs>
  <path id="_" data-name="”" class="cls-1" d="M792,6559.92H774.546q-1.928,13.08-6.213,31.98h13.606q7.827-18,10.934-30.58Zm26.406,0H801.014q-1.926,13.08-6.213,31.98h13.606q7.828-18,10.934-30.58Z" transform="translate(-768.344 -6559.91)"/>
</svg>
